Downloading and preparing fishing for ISIMIP 3a Baltic mizer
…
fit

# A tibble: 3 × 5
  term      estimate std.error statistic  p.value
  <chr>        <dbl>     <dbl>     <dbl>    <dbl>
1 spCod       0.652     0.0379     17.2  5.11e-37
2 spHerring  -0.102     0.0379     -2.70 7.74e- 3
3 spSprat    -0.0382    0.0379     -1.01 3.16e- 1

# Re-scale
projectEffort %>% 
  filter(source == "FishMIP_assessment F max") %>% 
  arrange(effort)

# A tibble: 150 × 4
    year sp     effort source                  
   <dbl> <chr>   <dbl> <chr>                   
 1  1963 Cod   0.00571 FishMIP_assessment F max
 2  1962 Cod   0.0157  FishMIP_assessment F max
 3  1961 Cod   0.0168  FishMIP_assessment F max
 4  2010 Cod   0.0235  FishMIP_assessment F max
 5  2009 Cod   0.0248  FishMIP_assessment F max
 6  2008 Cod   0.0254  FishMIP_assessment F max
 7  1998 Cod   0.0269  FishMIP_assessment F max
 8  2003 Cod   0.0282  FishMIP_assessment F max
 9  2002 Cod   0.0292  FishMIP_assessment F max
10  2007 Cod   0.0309  FishMIP_assessment F max
# ℹ 140 more rows
…
